..................
----------------------------------------------------------------------
Ran 18 tests in 1.631s

OK
Name             Stmts   Miss Branch BrPart  Cover   Missing
------------------------------------------------------------
Collatz.py          48      1     18      2    95%   70->84, 78->81, 84
TestCollatz.py      78      0      0      0   100%
------------------------------------------------------------
TOTAL              126      1     18      2    98%
